<svg width="38" height="40" viewBox="0 0 38 40" fill="none" xmlns="http://www.w3.org/2000/svg">
<path d="M25.7941 0H12.0615C5.74222 0 0.617676 5.50297 0.617676 12.2889V27.0356C0.617676 33.8215 5.74222 39.3245 12.0615 39.3245H25.7941C32.1133 39.3245 37.2379 33.8215 37.2379 27.0356V12.2889C37.2379 5.50297 32.1133 0 25.7941 0ZM33.8047 27.0356C33.8047 31.7791 30.2114 35.6378 25.7941 35.6378H12.0615C7.64418 35.6378 4.05082 31.7791 4.05082 27.0356V12.2889C4.05082 7.54538 7.64418 3.68667 12.0615 3.68667H25.7941C30.2114 3.68667 33.8047 7.54538 33.8047 12.2889V27.0356Z" fill="black"/>
<path d="M18.9275 9.83008C13.8716 9.83008 9.77246 14.232 9.77246 19.6612C9.77246 25.0904 13.8716 29.4923 18.9275 29.4923C23.9834 29.4923 28.0826 25.0904 28.0826 19.6612C28.0826 14.232 23.9834 9.83008 18.9275 9.83008ZM18.9275 25.8056C15.7736 25.8056 13.2056 23.048 13.2056 19.6612C13.2056 16.2719 15.7736 13.5167 18.9275 13.5167C22.0814 13.5167 24.6494 16.2719 24.6494 19.6612C24.6494 23.048 22.0814 25.8056 18.9275 25.8056Z" fill="black"/>
<path d="M28.7692 10.4042C29.443 10.4042 29.9891 9.81767 29.9891 9.09418C29.9891 8.37069 29.443 7.78418 28.7692 7.78418C28.0955 7.78418 27.5493 8.37069 27.5493 9.09418C27.5493 9.81767 28.0955 10.4042 28.7692 10.4042Z" fill="black"/>
</svg>
